<svg width="160" height="17" viewBox="0 0 160 17" fill="none" xmlns="http://www.w3.org/2000/svg">
<path fill-rule="evenodd" clip-rule="evenodd" d="M9.67537 1.38211C10.6429 2.25745 11.254 3.50135 11.254 4.97561C11.254 5.52846 11.1521 6.0813 10.9994 6.58808C10.8466 7.00271 10.6938 7.37127 10.4392 7.69377L5.0923 14.8808H2.29153L6.00891 9.90515C5.85614 9.90515 5.7543 9.90515 5.60153 9.90515C3.97199 9.90515 2.54615 9.39837 1.52769 8.52304C0.560153 7.6477 0 6.40379 0 4.97561C0 3.50135 0.560153 2.25745 1.57861 1.38211C2.59707 0.506775 3.97199 0 5.65245 0C7.33291 0 8.65691 0.506775 9.67537 1.38211ZM119.211 1.47425C118.09 0.829268 116.868 0.368564 115.544 0.230352C115.239 0.184282 114.984 0.184282 114.679 0.184282C112.54 0.184282 110.248 0.737128 109.332 2.67209C108.822 3.73171 108.822 5.39024 109.383 6.44986C110.35 8.29268 112.896 8.43089 114.831 8.79946C114.984 8.84553 115.137 8.84553 115.29 8.8916C115.952 9.02981 116.614 9.21409 117.072 9.6748C117.225 9.81301 117.276 9.95122 117.327 10.1355C117.581 10.9187 117.327 11.748 116.563 12.2547C116.257 12.439 115.85 12.5772 115.493 12.6694C114.526 12.8997 113.253 12.8537 112.285 12.6233C112.081 12.5772 111.929 12.5312 111.776 12.4851C111.267 12.3008 110.757 12.0705 110.299 11.748C110.095 11.6098 109.943 11.4715 109.739 11.3333L108.16 13.084C108.313 13.2222 108.517 13.3604 108.67 13.4526C110.91 14.9729 114.628 15.4336 117.225 14.4661C117.632 14.3279 118.039 14.0976 118.396 13.8672C118.905 13.4986 119.313 13.0379 119.567 12.5312C120.076 11.5176 120.127 9.90515 119.567 8.8916C118.956 7.69377 117.836 7.23306 116.512 6.8645C116.308 6.81843 116.104 6.77236 115.901 6.72629C114.78 6.49593 112.336 6.31165 111.674 5.34417C111.369 4.88347 111.369 4.10027 111.674 3.63957C111.98 3.04065 112.642 2.76423 113.304 2.57995C113.711 2.4878 114.169 2.44173 114.679 2.44173C115.799 2.44173 116.766 2.8103 117.683 3.31707C117.887 3.45528 118.09 3.54743 118.243 3.68564L119.72 1.84282C119.567 1.70461 119.414 1.5664 119.211 1.47425ZM103.475 14.8808L97.5684 0.414634V0.368564H95.5315H95.3787L89.4717 14.8808L89.4208 14.9729H92.3234L93.4946 11.8862H99.4526L100.624 14.9729H103.526L103.475 14.8808ZM96.4481 4.0542L98.536 9.53659H94.3603L96.4481 4.0542ZM84.3794 4.79133C84.1248 2.44173 82.5462 0.921409 80 0.460705C79.7454 0.414634 79.4398 0.368564 79.1343 0.322493C78.8288 0.276423 78.5232 0.276423 78.2177 0.276423H73.8383H72.3106V14.8808H78.2177C78.5232 14.8808 78.8288 14.8808 79.1343 14.8347C81.6805 14.6043 83.6664 13.4526 84.2266 11.103C84.2775 10.8726 84.3284 10.5962 84.3794 10.3659C84.4303 10.0894 84.4303 9.85908 84.4303 9.58266V5.57453C84.4303 5.2981 84.4303 5.02168 84.3794 4.79133ZM75.0095 2.62602H78.3195C78.5742 2.62602 78.8797 2.62602 79.0834 2.67209C80.4583 2.85637 81.4258 3.5935 81.6295 4.8374C81.6805 5.02168 81.6805 5.25203 81.6805 5.48238V9.62873C81.6805 9.85908 81.6805 10.0894 81.6295 10.2737C81.4258 11.2412 80.8148 11.9783 79.7454 12.3008C79.5417 12.3469 79.2871 12.393 79.0834 12.439C78.8288 12.4851 78.5742 12.4851 78.3195 12.4851H75.0095V2.62602ZM62.0751 10.3659L55.0477 0.368564H52.6544V14.9729H55.3533V5.11382L62.3297 14.9729H64.7231V0.368564H62.0242V10.3659H62.0751ZM46.7982 14.8808L40.8402 0.276423H38.5996L32.6926 14.8808H35.5952L36.6645 12.0244H42.7753L43.8447 14.8808H46.7982ZM39.7199 3.96206L42.0115 9.85908H37.4284L39.7199 3.96206ZM24.443 10.3659C25.9707 10.2276 27.3456 9.49051 28.0586 8.24661C28.4659 7.60163 28.6187 6.91057 28.6696 6.17344C28.6696 6.0813 28.6696 4.97561 28.6696 4.88347C28.6696 4.0542 28.5169 3.22493 28.0586 2.4878C27.3456 1.19783 26.0216 0.460705 24.443 0.322493C24.1884 0.276423 23.9847 0.276423 23.7301 0.276423H18.6378H17.4157V14.8808H20.1146V10.3659H23.7301C23.9847 10.3659 24.2393 10.3659 24.443 10.3659ZM23.832 8.01626H20.1655V2.62602H23.832C23.9338 2.62602 24.0356 2.62602 24.1375 2.62602C25.105 2.71816 25.7161 3.36314 25.8689 4.19241C25.9707 4.60705 25.9707 6.03523 25.8689 6.44986C25.6652 7.27913 25.0541 7.87805 24.1375 8.01626C24.0356 8.01626 23.9338 8.01626 23.832 8.01626ZM3.30999 2.94851C2.74984 3.45528 2.4443 4.14634 2.4443 4.97561C2.4443 5.85095 2.74984 6.54201 3.30999 7.04878C3.87015 7.55556 4.68491 7.83198 5.60153 7.83198C6.51814 7.83198 7.33291 7.55556 7.89306 7.04878C8.45321 6.54201 8.75875 5.85095 8.75875 4.97561C8.75875 4.10027 8.45321 3.40921 7.89306 2.94851C7.33291 2.44173 6.51814 2.16531 5.60153 2.16531C4.68491 2.16531 3.87015 2.44173 3.30999 2.94851Z" fill="white"/>
<path d="M129.446 16.9996C131.246 16.9996 132.705 15.6795 132.705 14.051C132.705 12.4226 131.246 11.1025 129.446 11.1025C127.646 11.1025 126.187 12.4226 126.187 14.051C126.187 15.6795 127.646 16.9996 129.446 16.9996Z" fill="#FF293A"/>
<path d="M143.501 14.9264C142.686 14.9264 142.024 14.8343 141.464 14.6961C140.904 14.5579 140.446 14.3275 140.089 14.005C139.733 13.6825 139.478 13.2679 139.325 12.7611C139.173 12.2543 139.071 11.6094 139.071 10.8722V4.88307H137.187V2.67169H139.071V0.368164H141.973V2.67169H144.672V4.88307H141.973V10.9183C141.973 11.6554 142.126 12.1622 142.381 12.3926C142.635 12.6229 143.094 12.7611 143.705 12.7611H144.723V14.9725H143.501V14.9264Z" fill="#FF293A"/>
<path d="M147.015 2.67188H150.172L153.736 11.7938L156.945 2.67188H160L155.264 14.9266H152.311L147.015 2.67188Z" fill="#FF293A"/>
</svg>
